…
    shrink_estimate(
      filtexp = 0.7, filtfactor = 1,
      estim_base = gestim*bestim, estim_filt = abs(gestim*bestim)
    ) %>%

    shrink_evaluate(nobs, case)
#> # A tibble: 25 x 5
#>     nobs  case mse_base mse_comp mse_ratio
#>    <dbl> <int>    <dbl>    <dbl>     <dbl>
#>  1    10     1  0.0136   0.0109      0.800
#>  2    10     2  0.0294   0.0272      0.925
#>  3    10     3  0.0660   0.0773      1.17 
#>  4    10     4  0.0579   0.0679      1.17 
#>  5    10     5  0.0786   0.0871      1.11 
#>  6    20     1  0.00575  0.00493     0.857
#>  7    20     2  0.00353  0.00361     1.02 
#>  8    20     3  0.0203   0.0233      1.15 
#>  9    20     4  0.0185   0.0230      1.25 
#> 10    20     5  0.0185   0.0200      1.08 
#> # ... with 15 more rows
```
…
